{
  "establishments": [
      {
          "FHRSID": 362160,
          "LocalAuthorityBusinessID": "45206",
          "BusinessName": "\"Park Lane Primary School MOCK 2\"",
          "BusinessType": "School/college/university",
          "RatingValue": "5",
          "RatingDate": "2023-12-05T00:00:00",
          "links": [
              {
                  "rel": "self",
                  "href": "http://api.ratings.food.gov.uk/establishments/362160"
              }
          ]
      },
      {
          "FHRSID": 122188,
          "LocalAuthorityBusinessID": "5076",
          "BusinessName": "\"Playhouse Nursery\" Private Day Nursery",
          "BusinessType": "Hospitals/Childcare/Caring Premises",
          "RatingValue": "5",
          "RatingDate": "2024-01-11T00:00:00",
          "links": [
              {
                  "rel": "self",
                  "href": "http://api.ratings.food.gov.uk/establishments/122188"
              }
          ]
      },
      {
          "FHRSID": 468824,
          "LocalAuthorityBusinessID": "1317",
          "BusinessName": "\"Rio Cinema\"",
          "BusinessType": "Restaurant/Cafe/Canteen",
          "RatingValue": "3",
          "RatingDate": "2022-12-08T00:00:00",
          "links": [
              {
                  "rel": "self",
                  "href": "http://api.ratings.food.gov.uk/establishments/468824"
              }
          ]
      },
      {
          "FHRSID": 1750671,
          "LocalAuthorityBusinessID": "115408",
          "BusinessName": "\"Riverview Cafe\" Stockton Borough Council Catering & Building Services",
          "BusinessType": "Restaurant/Cafe/Canteen",
          "RatingValue": "5",
          "RatingDate": "2024-08-28T00:00:00",
          "links": [
              {
                  "rel": "self",
                  "href": "http://api.ratings.food.gov.uk/establishments/1750671"
              }
          ]
      },
      {
          "FHRSID": 1745521,
          "LocalAuthorityBusinessID": "PI/000005128",
          "BusinessName": "\"Sweet Clouds\" Candy Floss",
          "BusinessType": "Mobile caterer",
          "RatingValue": "5",
          "RatingDate": "2024-11-25T00:00:00",
          "links": [
              {
                  "rel": "self",
                  "href": "http://api.ratings.food.gov.uk/establishments/1745521"
              }
          ]
      },
      {
          "FHRSID": 1438589,
          "LocalAuthorityBusinessID": "R011P4ERRO/2",
          "BusinessName": "\"West Leys Farm\"",
          "BusinessType": "Farmers/growers",
          "RatingValue": "Pass",
          "RatingDate": "2011-04-06T00:00:00",
          "links": [
              {
                  "rel": "self",
                  "href": "http://api.ratings.food.gov.uk/establishments/1438589"
              }
          ]
      },
      {
          "FHRSID": 1225663,
          "LocalAuthorityBusinessID": "79796",
          "BusinessName": "# Bar",
          "BusinessType": "Pub/bar/nightclub",
          "RatingValue": "Pass",
          "RatingDate": "2024-02-14T00:00:00",
          "links": [
              {
                  "rel": "self",
                  "href": "http://api.ratings.food.gov.uk/establishments/1225663"
              }
          ]
      },
      {
          "FHRSID": 1316538,
          "LocalAuthorityBusinessID": "72238",
          "BusinessName": "#23",
          "BusinessType": "Manufacturers/packers",
          "RatingValue": "Pass",
          "RatingDate": "2020-11-30T00:00:00",
          "links": [
              {
                  "rel": "self",
                  "href": "http://api.ratings.food.gov.uk/establishments/1316538"
              }
          ]
      },
      {
          "FHRSID": 1527471,
          "LocalAuthorityBusinessID": "53582",
          "BusinessName": "#500 Coffee Bar & Restaurant",
          "BusinessType": "Restaurant/Cafe/Canteen",
          "RatingValue": "Awaiting Inspection",
          "RatingDate": "1900-01-01T00:00:00",
          "links": [
              {
                  "rel": "self",
                  "href": "http://api.ratings.food.gov.uk/establishments/1527471"
              }
          ]
      },
      {
          "FHRSID": 1730108,
          "LocalAuthorityBusinessID": "PI/000087369",
          "BusinessName": "#bankmunch",
          "BusinessType": "Mobile caterer",
          "RatingValue": "AwaitingInspection",
          "RatingDate": "1901-01-01T00:00:00",
          "links": [
              {
                  "rel": "self",
                  "href": "http://api.ratings.food.gov.uk/establishments/1730108"
              }
          ]
      }
  ],
  "meta": {
      "dataSource": "API",
      "extractDate": "2025-01-03T01:20:46.1955245+00:00",
      "itemCount": 10,
      "returncode": "OK",
      "totalCount": 598434,
      "totalPages": 3,
      "pageSize": 10,
      "pageNumber": 2
  },
  "links": [
      {
          "rel": "self",
          "href": "http://api.ratings.food.gov.uk/establishments/basic/2/10"
      },
      {
          "rel": "first",
          "href": "http://api.ratings.food.gov.uk/establishments/basic/1/10"
      },
      {
          "rel": "previous",
          "href": "http://api.ratings.food.gov.uk/establishments/basic/1/10"
      },
      {
          "rel": "next",
          "href": "http://api.ratings.food.gov.uk/establishments/basic/3/10"
      },
      {
          "rel": "last",
          "href": "http://api.ratings.food.gov.uk/establishments/basic/59844/10"
      }
  ]
}